{
    "name": "",
    "css_prefix_text": "icon-",
    "css_use_suffix": false,
    "hinting": true,
    "units_per_em": 1000,
    "ascent": 850,
    "glyphs": [
        {
            "uid": "c2314ed1d2314b89f9285c53bcbf2548",
            "css": "child",
            "code": 59392,
            "src": "fontawesome"
        },
        {
            "uid": "a30a32d49f80bb534c062ae1743ef433",
            "css": "down-thin",
            "code": 59393,
            "src": "entypo"
        },
        {
            "uid": "78944e4652d6f9b8b506eaef331308cd",
            "css": "down-bold",
            "code": 59394,
            "src": "entypo"
        },
        {
            "uid": "dd6df3b754e8d0dbf09d9b24088f0442",
            "css": "box",
            "code": 59395,
            "src": "iconic"
        },
        {
            "uid": "gjt8ba5q0n3nn8ptw6324sflr8qoaeam",
            "css": "location",
            "code": 59396,
            "src": "typicons"
        },
        {
            "uid": "13289e807e02b1d46f2fe10d81d6fba6",
            "css": "location-outline",
            "code": 59397,
            "src": "typicons"
        },
        {
            "uid": "b8e88705f42bd79580be828233c65da0",
            "css": "money",
            "code": 59398,
            "src": "linecons"
        },
        {
            "uid": "d58dc0a0927a7dea2992f615f2fbf400",
            "css": "wallet",
            "code": 59399,
            "src": "linecons"
        },
        {
            "uid": "7f3d8ff1d5f6ee019f0c00ed7a86caec",
            "css": "truck",
            "code": 59400,
            "src": "fontawesome"
        },
        {
            "uid": "e07df3e5b9ae72836b7804f38f0644a9",
            "css": "exchange",
            "code": 59401,
            "src": "iconic"
        },
        {
            "uid": "d92a3efcdf848fb0abd9410b8d95813e",
            "css": "person",
            "code": 59402,
            "src": "elusive"
        },
        {
            "uid": "1e394b6cd5e0da3e10d8e4f3fe355960",
            "css": "adult",
            "code": 59403,
            "src": "elusive"
        },
        {
            "uid": "6020aff067fc3c119cdd75daa5249220",
            "css": "exchange-1",
            "code": 59404,
            "src": "fontawesome"
        },
        {
            "uid": "bd6176c7f1bd64eec8904241316f2f52",
            "css": "down-bold-1",
            "code": 59405,
            "src": "mfglabs"
        },
        {
            "uid": "3838a5aba604532d2dbae5904615ea39",
            "css": "down",
            "code": 59406,
            "src": "mfglabs"
        },
        {
            "uid": "51fb22f9ff9d7f60c95ef31e4c59502d",
            "css": "comment",
            "code": 59407,
            "src": "mfglabs"
        },
        {
            "uid": "fb94e23ae1e7660aa63cc5f351ec7560",
            "css": "right",
            "code": 59408,
            "src": "fontawesome"
        },
        {
            "uid": "f6d72aa5ef8e8f0e553012af9a29a87e",
            "css": "left",
            "code": 59409,
            "src": "fontawesome"
        },
        {
            "uid": "f06941dfcb90dc24b987d810898c4310",
            "css": "down-1",
            "code": 59410,
            "src": "fontawesome"
        },
        {
            "uid": "720f98e7580b7987c8dc542513d1d440",
            "css": "up",
            "code": 59411,
            "src": "fontawesome"
        }
    ]
}
